…
> # Sort values
> merged_df <- merged_df |> arrange(regionid, Date)

> # Forward fill missing values in Population column within each group
> merged_df |>
+   arrange(regionid, Date) |> 
+   group_by(regionid) |> 
+   m .... [TRUNCATED] 
# A tibble: 295 × 7
# Groups:   regionid [5]
   regionid Date       population temperature solar_exposure population_interpolated
   <chr>    <date>          <dbl>       <dbl>          <dbl>                   <dbl>
 1 NSW1     2008-12-01    7352883        NA           NA                    7352883 
 2 NSW1     2009-03-01    7385774        26.1          6.69                 7384374.
 3 NSW1     2009-06-01    7408540        17            0.972                7406939.
 4 NSW1     2009-09-01    7435485        21.4          4.64                 7432444.
 5 NSW1     2009-12-01    7459363        19.4          7.61                 7455622.
 6 NSW1     2010-03-01    7488717        20.6          3.19                 7482818.
 7 NSW1     2010-06-01    7506058        18            3.22                 7501911.
 8 NSW1     2010-09-01    7525564        27.4          3.81                 7520069.
 9 NSW1     2010-12-01    7544724        21.5          3.31                 7538452.
10 NSW1     2011-03-01    7571474        34.4          6.5                  7561482.
# ℹ 285 more rows
# ℹ 1 more variable: interpolation_good <lgl>
# ℹ Use `print(n = ...)` to see more rows
…
